Executing a Basic GOR Query • gorr
…
If everything goes as planned, we’ll have a conn object to pass into the gor_query function to finally run a query:

result <- gor_query("gor #dbsnp# | top 100", conn)

The results come back as an R data.frame:

print(result)
#> # A tibble: 100 x 5
#>    Chrom   POS reference allele rsIDs       
#>    <chr> <int> <chr>     <chr>  <chr>       
#>  1 chr1  10020 AA        A      rs775809821 
#>  2 chr1  10039 A         C      rs978760828 
#>  3 chr1  10043 T         A      rs1008829651
#>  4 chr1  10051 A         G      rs1052373574
#>  5 chr1  10055 T         A      rs892501864 
#>  6 chr1  10057 A         AA     rs768019142 
#>  7 chr1  10063 A         C      rs1010989343
#>  8 chr1  10077 C         G      rs1022805358
#>  9 chr1  10108 C         T      rs62651026  
#> 10 chr1  10109 A         T      rs376007522 
#> # ... with 90 more rows

It should also be noted that larger gor queries can be constructed inside a string block and piped directly into the gor_query function:

chr21_results <- "
  gor -p chr21 #dbsnp# 
    | where len(reference)=1 and len(allele)=1
    | calc snptype reference+'/'+allele 
    | hide rsIDs
    | top 100" %>%
    gor_query(conn)

print(chr21_results)
#> # A tibble: 100 x 5
#>    Chrom     POS reference allele snptype
#>    <chr>   <int> <chr>     <chr>  <chr>  
#>  1 chr21 9411199 T         C      T/C    
#>  2 chr21 9411236 G         A      G/A    
#>  3 chr21 9411239 G         A      G/A    
#>  4 chr21 9411242 C         A      C/A    
#>  5 chr21 9411243 A         C      A/C    
#>  6 chr21 9411245 C         A      C/A    
#>  7 chr21 9411245 C         T      C/T    
#>  8 chr21 9411249 G         A      G/A    
#>  9 chr21 9411252 C         A      C/A    
#> 10 chr21 9411254 A         G      A/G    
#> # ... with 90 more rows
…
