Using create statements and referencing local data frames • gorr
…
target_variant <- 
  brca_variants %>%
  group_by(rsids) %>%
  count() %>% 
  ungroup() %>%
  arrange(desc(n)) %>%
  head(n = 1) %>%
  pull(rsids)

target_variant
#> [1] "rs71071031"

brca_variants %>% filter(rsids == target_variant) %>% select(-distance)
#> # A tibble: 23 x 8
#>    chrom gene_start gene_end gene_symbol     pos reference        allele rsids  
#>    <chr>      <int>    <int> <chr>         <int> <chr>            <chr>  <chr>  
#>  1 chr13   32315085 32400266 BRCA2        3.24e7 TTTTTTTTTTTTTTT… T      rs7107…
#>  2 chr13   32315085 32400266 BRCA2        3.24e7 TTTTTTTTTTTTTTT… T      rs7107…
#>  3 chr13   32315085 32400266 BRCA2        3.24e7 TTTTTTTTTTTTTTT… T      rs7107…
#>  4 chr13   32315085 32400266 BRCA2        3.24e7 TTTTTTTTTTTTTTT… T      rs7107…
#>  5 chr13   32315085 32400266 BRCA2        3.24e7 TTTTTTTTTTTTTTT… T      rs7107…
#>  6 chr13   32315085 32400266 BRCA2        3.24e7 TTTTTTTTTTTTTTT… T      rs7107…
#>  7 chr13   32315085 32400266 BRCA2        3.24e7 TTTTTTTTTTTTTTT… T      rs7107…
#>  8 chr13   32315085 32400266 BRCA2        3.24e7 TTTTTTTTTTTTTTT… T      rs7107…
#>  9 chr13   32315085 32400266 BRCA2        3.24e7 TTTTTTTTTTTTTTT… T      rs7107…
#> 10 chr13   32315085 32400266 BRCA2        3.24e7 TTTTTTTTTTTTTTTT T      rs7107…
#> # … with 13 more rows
…
