Phenotype matrix services • gorr
…
Get data

Lastly, let’s fetch a phenotype from the project. We’ll use the first
listed

pheno_data <-  get_data(pheno_matrix, conn)

print(pheno_data)
#> # A tibble: 2,692 × 5
#>         pn phecode_case_255.… phecode_case_25… phecode_case_25… phecode_case_18…
#>      <dbl>              <dbl>            <dbl>            <dbl>            <dbl>
#>  1 1002261                -99              -99              -99                1
#>  2 1005939                -99              -99              -99                1
#>  3 1006278                  1              -99              -99              -99
#>  4 1010500                -99              -99              -99                1
#>  5 1011704                -99              -99              -99                1
#>  6 1012415                  1              -99              -99              -99
#>  7 1012521                -99              -99              -99                1
#>  8 1012811                -99              -99              -99                1
#>  9 1018263                  1              -99              -99              -99
#> 10 1022873                -99              -99              -99                1
#> # … with 2,682 more rows
…
