Phenotype services • gorr
…
phenotype_upload_data(new_phenotype, data, conn)
#> Successfully uploaded phenotype data

Get phenotype data

Phenotype data can then be fetched using get_data:

get_data(new_phenotype, conn)
#> Warning in get_data.phenotype(new_phenotype, conn): phenotype structure provided
#> - conn argument ignored
#> # A tibble: 1,001 × 2
#>       pn rtest_pheno50
#>    <dbl> <chr>        
#>  1  2000 lean         
#>  2  2001 lean         
#>  3  2002 lean         
#>  4  2003 obease       
#>  5  2004 obease       
#>  6  2005 lean         
#>  7  2006 lean         
#>  8  2007 obease       
#>  9  2008 lean         
#> 10  2009 lean         
#> # … with 991 more rows
…
